
FILE: ...YITH-Testimonials-to-Framework\includes\class-yith-tpp-admin.php
----------------------------------------------------------------------
FOUND 0 ERRORS AND 2 WARNINGS AFFECTING 2 LINES
----------------------------------------------------------------------
 56 | WARNING | This comment is 56% valid code; is this commented out
    |         | code?
 68 | WARNING | This comment is 62% valid code; is this commented out
    |         | code?
----------------------------------------------------------------------


FILE: ...ials-to-Framework\includes\class-yith-tpp-plugin-testimonial.php
----------------------------------------------------------------------
FOUND 0 ERRORS AND 5 WARNINGS AFFECTING 3 LINES
----------------------------------------------------------------------
 146 | WARNING | Method name "_require" should not be prefixed with
     |         | an underscore to indicate visibility
 149 | WARNING | Found: ==. Use strict comparisons (=== or !==).
 149 | WARNING | Found: ==. Use strict comparisons (=== or !==).
 149 | WARNING | Found: ==. Use strict comparisons (=== or !==).
 163 | WARNING | This comment is 53% valid code; is this commented
     |         | out code?
----------------------------------------------------------------------


FILE: ...nt\plugins\YITH-Testimonials-to-Framework\includes\functions.php
----------------------------------------------------------------------
FOUND 3 ERRORS AFFECTING 3 LINES
----------------------------------------------------------------------
 23 | ERROR | extract() usage is highly discouraged, due to the
    |       | complexity and unintended issues it might cause.
 39 | ERROR | extract() usage is highly discouraged, due to the
    |       | complexity and unintended issues it might cause.
 55 | ERROR | extract() usage is highly discouraged, due to the
    |       | complexity and unintended issues it might cause.
----------------------------------------------------------------------


